1234567,JOHN,SMITH,1,BCBSFL
1234567,john,SMITH,2,BCBSFL
2234567,LISA,SMITH,2,HUMANA
3234567,MARY,JOHNSON,2,UNITEDHEALTH
4234567,BRETT,ROBINSON,2,CVSHEALTH
5234567,DANIELLE,WILLIAMSON,2,SYSMEX
6234567,JAY,STEFFICK,2,AMERICAN
7234567,DANIELLE,HATFIELD,2,BCBSFL
